{
  "stars": [
    {
      "id": "3ee2e736-7f4d-4478-9869-b1ff18f13b5b",
      "name": "Bsjss",
      "absoluteTemperature": 12000.3,
      "relativeLuminosity": 3.282,
      "relativeRadius": 6.3215,
      "absoluteMagnitude": 214.0,
      "starType": "Red Dwarf",
      "starColor": "red",
      "spectralClass": "B"
    }
  ]
}